***************
Log started at: Fri Aug 18 15:50:57 2017
Version 20100224
***************
acquisition thread starting
stride buffer sizes: 20480 (16) and 19968 (1664), 0 bytes left over
buffer step is     7.91 msec
after2 > endPlus1
after2 524288, bufInc 19968, crossInc 527360
***************
Log started at: Fri Aug 18 15:51:14 2017
Version 20100224
***************
acquisition thread starting
stride buffer sizes: 20480 (16) and 19968 (1664), 0 bytes left over
buffer step is     7.91 msec
after2 > endPlus1
after2 524288, bufInc 19968, crossInc 527360
at nbuffers 281, reset original PriorityClass 32
***************
Log started at: Fri Aug 18 15:51:43 2017
Version 20100224
***************
acquisition thread starting
stride buffer sizes: 20480 (16) and 19968 (1664), 0 bytes left over
buffer step is     7.91 msec
after2 > endPlus1
after2 524288, bufInc 19968, crossInc 527360
***************
Log started at: Fri Aug 18 15:52:51 2017
Version 20100224
***************
acquisition thread starting
stride buffer sizes: 20480 (16) and 19968 (1664), 0 bytes left over
buffer step is     7.91 msec
after2 > endPlus1
after2 524288, bufInc 19968, crossInc 527360
